{
    "users": [
        {
            "av": "av.jpg",
            "name": "Bob Smith",
            "online": false
        },
        {
            "av": "av.jpg",
            "name": "Jane Smith",
            "online": true
        },
        {
            "av": "av.jpg",
            "name": "John Doe",
            "online": true
        },
        {
            "av": "av.jpg",
            "name": "Lewis Hamilton",
            "online": false
        },
        {
            "av": "av.jpg",
            "name": "Larry O Brien",
            "online": true
        }
    ]
}